{
  "scan": {
    "analysis": {
      "0": {
        "algorithm": "OccupancyAnalysis",
        "config": {
          "createMask": false
        }
      },
      "1": {
        "algorithm": "TotAnalysis",
        "config": {
            "tot_bins": {
                "n_bins": 2048,
                "x_lo": 0,
                "x_hi" : 400
            },
            "tot_sigma_bins": {
                "n_bins": 11,
                "x_lo": -0.5,   
                "x_hi": 10.5
            },
            "tot_unit": "1.5625 ns"
        }
      },
      "2": {
        "algorithm": "ToaAnalysis",
        "config": {
            "toa_bins": {
                "n_bins": 400,
                "x_lo": 0,
                "x_hi" : 400
            },
            "toa_sigma_bins": {
                "n_bins": 11,
                "x_lo": -0.5,   
                "x_hi": 10.5
            },
            "toa_unit": "1.5625 ns"
        }
    },
      "n_count": 3
    },
    "histogrammer": {
      "0": {
        "algorithm": "OccupancyMap",
        "config": {}
      },
      "1": {
        "algorithm": "TotMap",
        "config": {}
      },
      "2": {
        "algorithm": "Tot2Map",
        "config": {}
      },
      "3": {
        "algorithm": "ToaMap",
        "config": {}
      },
      "4": {
        "algorithm": "Toa2Map",
        "config": {}
      },
      "5": {
        "algorithm": "TagDist",
        "config": {}
      },
      "6": {
        "algorithm": "HitsPerEvent",
        "config": {}
      },
      "7": {
        "algorithm": "DataArchiver",
        "config": {}
      },
      "n_count": 7
    },
    "loops": [
      {
        "config": {
          "max": 768,
          "min": 0,
          "step": 1,
          "maskType": 3
        },
        "loopAction": "Rd53bMaskLoop"
      },
      {
        "config": {
          "max": 50,
          "min": 0,
          "step": 1,
          "nSteps": 2,
          "usePToT": true
        },
        "loopAction": "Rd53bCoreColLoop"
      },
      {
        "config": {
          "count": 50,
          "delay": 56,
          "extTrigger": false,
          "frequency": 5000,
          "noInject": false,
          "time": 0,
          "edgeMode": true,
          "edgeDuration": 20
        },
        "loopAction": "Rd53bTriggerLoop"
      },
      {
        "loopAction": "StdDataLoop"
      }
    ],
    "name": "DigitalScanPToT",
    "prescan": {
        "InjVcalRange": 1,
        "DiffTh1M": 600,
        "DiffTh2": 0,
        "InjDigEn": 1,
        "Latency": 60,
        "TotEnPtot": 1,
        "TotEnPtoa": 1,
        "TotPtotLatency": 2
    }
  }
}
